Konza_Vegetation_Analysis
…
#read in the data
konza_data <- read.csv("data/raw data/NEON.D06.KONZ.DP1.10058.001.div_1m2Data.2025-08.basic.20251222T234053Z.csv")

Data summarizing with dplyr

We’ll next use the dplyr package to summarize some different aspects of the data.

# first summary to make will be a count of the number of observations in each family
konza_data %>%
  group_by(family) %>%
  tally() %>%
  arrange(desc(n))

# A tibble: 33 × 2
   family               n
   <chr>            <int>
 1 "Poaceae"          118
 2 ""                 113
 3 "Asteraceae"        74
 4 "Fabaceae"          43
 5 "Cyperaceae"        17
 6 "Euphorbiaceae"     13
 7 "Asclepiadaceae"    12
 8 "Cornaceae"         12
 9 "Lamiaceae"          7
10 "Solanaceae"         7
# ℹ 23 more rows

This analysis showed that Poaceae and Asteraceae are among the most common family found in these plots.

#the goal is to calculate the mean percent cover of each family
konza_data %>%
  group_by(family) %>%
  summarise(mean_pcnt_cover = mean(percentCover),
            sd_pcnt_cover = sd(percentCover)) %>%
    arrange(desc(mean_pcnt_cover))

# A tibble: 33 × 3
   family          mean_pcnt_cover sd_pcnt_cover
   <chr>                     <dbl>         <dbl>
 1 ""                        21.4          33.9 
 2 "Fagaceae"                16            NA   
 3 "Cornaceae"                6.75          4.41
 4 "Poaceae"                  5.28          9.37
 5 "Fabaceae"                 4.81          7.10
 6 "Ulmaceae"                 4             1.41
 7 "Rhamnaceae"               3.8           3.11
 8 "Anacardiaceae"            3.75          1.5 
 9 "Asteraceae"               2.51          4.72
10 "Rosaceae"                 2.33          1.53
# ℹ 23 more rows

This analysis showed that the largest percent cover is the NA taxa, which means it likely wasn’t able to be identified, but the highest mean percent cover at %16 across the plots was Fagaceae

#the goal is to calculate the mean percent cover of each family at elevation greater than 390
konza_data %>%
  filter(elevation > 390) %>%
  group_by(family) %>%
  summarise(mean_pcnt_cover = mean(percentCover),
            sd_pcnt_cover = sd(percentCover)) %>%
    arrange(desc(mean_pcnt_cover))

# A tibble: 21 × 3
   family       mean_pcnt_cover sd_pcnt_cover
   <chr>                  <dbl>         <dbl>
 1 ""                     23.6         37.6  
 2 "Fabaceae"              5.98         8.26 
 3 "Poaceae"               5.68        11.7  
 4 "Cornaceae"             4.62         3.02 
 5 "Asteraceae"            4.22         6.88 
 6 "Rutaceae"              3           NA    
 7 "Rosaceae"              2.33         1.53 
 8 "Lythraceae"            2           NA    
 9 "Cyperaceae"            1.45         1.52 
10 "Lamiaceae"             1.43         0.932
# ℹ 11 more rows
…
